{
  "packageRules": [
    {
      "matchPaths": ["containers/2.9"],
      "packageRules": [
        {
          "matchPackagePatterns": ["ansible"],
          "allowedVersions": "<2.10"
        }
      ]
    }
  ]
}
